<?xml version="1.0" encoding="UTF-8" standalone="no"?>
<!-- Created with Inkscape (http://www.inkscape.org/) -->

<svg
   xmlns:dc="http://purl.org/dc/elements/1.1/"
   xmlns:cc="http://creativecommons.org/ns#"
   xmlns:rdf="http://www.w3.org/1999/02/22-rdf-syntax-ns#"
   xmlns:svg="http://www.w3.org/2000/svg"
   xmlns="http://www.w3.org/2000/svg"
   xmlns:xlink="http://www.w3.org/1999/xlink"
   xmlns:sodipodi="http://sodipodi.sourceforge.net/DTD/sodipodi-0.dtd"
   xmlns:inkscape="http://www.inkscape.org/namespaces/inkscape"
   width="144"
   height="144"
   viewBox="0 0 38.099999 38.100001"
   version="1.1"
   id="svg4906"
   inkscape:version="0.92.4 (unknown)"
   sodipodi:docname="pie.svg">
  <defs
     id="defs4900">
    <linearGradient
       inkscape:collect="always"
       id="linearGradient5610">
      <stop
         style="stop-color:#ed1b24;stop-opacity:1;"
         offset="0"
         id="stop5606" />
      <stop
         id="stop5614"
         offset="0.91499597"
         style="stop-color:#ed1b24;stop-opacity:1;" />
      <stop
         style="stop-color:#a61b24;stop-opacity:1"
         offset="1"
         id="stop5608" />
    </linearGradient>
    <radialGradient
       inkscape:collect="always"
       xlink:href="#linearGradient5610"
       id="radialGradient5612"
       cx="19.037992"
       cy="277.94254"
       fx="19.037992"
       fy="277.94254"
       r="13.888964"
       gradientUnits="userSpaceOnUse"
       gradientTransform="matrix(1,0,0,0.99998172,0,0.00481248)" />
  </defs>
  <sodipodi:namedview
     id="base"
     pagecolor="#ffffff"
     bordercolor="#666666"
     borderopacity="1.0"
     inkscape:pageopacity="0.0"
     inkscape:pageshadow="2"
     inkscape:zoom="5.6"
     inkscape:cx="84.252695"
     inkscape:cy="71.876727"
     inkscape:document-units="mm"
     inkscape:current-layer="layer1"
     showgrid="false"
     units="px"
     inkscape:pagecheckerboard="true"
     inkscape:window-width="1920"
     inkscape:window-height="1010"
     inkscape:window-x="0"
     inkscape:window-y="33"
     inkscape:window-maximized="1" />
  <metadata
     id="metadata4903">
    <rdf:RDF>
      <cc:Work
         rdf:about="">
        <dc:format>image/svg+xml</dc:format>
        <dc:type
           rdf:resource="http://purl.org/dc/dcmitype/StillImage" />
        <dc:title></dc:title>
      </cc:Work>
    </rdf:RDF>
  </metadata>
  <g
     inkscape:label="Layer 1"
     inkscape:groupmode="layer"
     id="layer1"
     transform="translate(0,-258.89998)">
    <g
       id="g4682"
       style="fill:#fff391;fill-opacity:1"
       transform="matrix(0.07679455,0,0,0.07679455,-42.396786,237.61359)">
      <circle
         r="41.164722"
         cy="419.79654"
         cx="654.98303"
         id="path4584"
         style="opacity:1;fill:#fff391;fill-opacity:1;stroke:none;stroke-width:59.48799896;stroke-linecap:round;stroke-linejoin:round;stroke-miterlimit:4;stroke-dasharray:none;stroke-opacity:1;paint-order:stroke fill markers" />
      <circle
         style="opacity:1;fill:#fff391;fill-opacity:1;stroke:none;stroke-width:59.48799896;stroke-linecap:round;stroke-linejoin:round;stroke-miterlimit:4;stroke-dasharray:none;stroke-opacity:1;paint-order:stroke fill markers"
         id="circle4586"
         cx="694.69104"
         cy="380.08853"
         r="41.164722" />
      <circle
         r="41.164722"
         cy="354.70145"
         cx="744.16333"
         id="circle4588"
         style="opacity:1;fill:#fff391;fill-opacity:1;stroke:none;stroke-width:59.48799896;stroke-linecap:round;stroke-linejoin:round;stroke-miterlimit:4;stroke-dasharray:none;stroke-opacity:1;paint-order:stroke fill markers" />
      <circle
         style="opacity:1;fill:#fff391;fill-opacity:1;stroke:none;stroke-width:59.48799896;stroke-linecap:round;stroke-linejoin:round;stroke-miterlimit:4;stroke-dasharray:none;stroke-opacity:1;paint-order:stroke fill markers"
         id="circle4590"
         cx="799.4942"
         cy="345.58813"
         r="41.164722" />
      <circle
         r="41.164722"
         cy="469.26886"
         cx="629.59595"
         id="circle4592"
         style="opacity:1;fill:#fff391;fill-opacity:1;stroke:none;stroke-width:59.48799896;stroke-linecap:round;stroke-linejoin:round;stroke-miterlimit:4;stroke-dasharray:none;stroke-opacity:1;paint-order:stroke fill markers" />
      <circle
         transform="scale(-1)"
         style="opacity:1;fill:#fff391;fill-opacity:1;stroke:none;stroke-width:59.48799896;stroke-linecap:round;stroke-linejoin:round;stroke-miterlimit:4;stroke-dasharray:none;stroke-opacity:1;paint-order:stroke fill markers"
         id="circle4594"
         cx="-905.2738"
         cy="-380.414"
         r="41.164722" />
      <circle
         transform="scale(-1)"
         r="41.164722"
         cy="-420.12201"
         cx="-944.98181"
         id="circle4596"
         style="opacity:1;fill:#fff391;fill-opacity:1;stroke:none;stroke-width:59.48799896;stroke-linecap:round;stroke-linejoin:round;stroke-miterlimit:4;stroke-dasharray:none;stroke-opacity:1;paint-order:stroke fill markers" />
      <circle
         transform="scale(-1)"
         style="opacity:1;fill:#fff391;fill-opacity:1;stroke:none;stroke-width:59.48799896;stroke-linecap:round;stroke-linejoin:round;stroke-miterlimit:4;stroke-dasharray:none;stroke-opacity:1;paint-order:stroke fill markers"
         id="circle4598"
         cx="-970.3689"
         cy="-469.5943"
         r="41.164722" />
      <circle
         transform="scale(-1)"
         r="41.164722"
         cy="-524.92517"
         cx="-979.48218"
         id="circle4600"
         style="opacity:1;fill:#fff391;fill-opacity:1;stroke:none;stroke-width:59.48799896;stroke-linecap:round;stroke-linejoin:round;stroke-miterlimit:4;stroke-dasharray:none;stroke-opacity:1;paint-order:stroke fill markers" />
      <circle
         transform="scale(-1)"
         style="opacity:1;fill:#fff391;fill-opacity:1;stroke:none;stroke-width:59.48799896;stroke-linecap:round;stroke-linejoin:round;stroke-miterlimit:4;stroke-dasharray:none;stroke-opacity:1;paint-order:stroke fill markers"
         id="circle4602"
         cx="-855.80145"
         cy="-355.02692"
         r="41.164722" />
      <circle
         r="41.164722"
         cy="944.65637"
         cx="-630.70483"
         id="circle4618"
         style="opacity:1;fill:#fff391;fill-opacity:1;stroke:none;stroke-width:59.48799896;stroke-linecap:round;stroke-linejoin:round;stroke-miterlimit:4;stroke-dasharray:none;stroke-opacity:1;paint-order:stroke fill markers"
         transform="rotate(-90)" />
      <circle
         style="opacity:1;fill:#fff391;fill-opacity:1;stroke:none;stroke-width:59.48799896;stroke-linecap:round;stroke-linejoin:round;stroke-miterlimit:4;stroke-dasharray:none;stroke-opacity:1;paint-order:stroke fill markers"
         id="circle4620"
         cx="-670.41278"
         cy="904.94836"
         r="41.164722"
         transform="rotate(-90)" />
      <circle
         r="41.164722"
         cy="855.47607"
         cx="-695.79987"
         id="circle4622"
         style="opacity:1;fill:#fff391;fill-opacity:1;stroke:none;stroke-width:59.48799896;stroke-linecap:round;stroke-linejoin:round;stroke-miterlimit:4;stroke-dasharray:none;stroke-opacity:1;paint-order:stroke fill markers"
         transform="rotate(-90)" />
      <circle
         style="opacity:1;fill:#fff391;fill-opacity:1;stroke:none;stroke-width:59.48799896;stroke-linecap:round;stroke-linejoin:round;stroke-miterlimit:4;stroke-dasharray:none;stroke-opacity:1;paint-order:stroke fill markers"
         id="circle4624"
         cx="-704.91321"
         cy="800.1452"
         r="41.164722"
         transform="rotate(-90)" />
      <circle
         r="41.164722"
         cy="970.04346"
         cx="-581.23248"
         id="circle4626"
         style="opacity:1;fill:#fff391;fill-opacity:1;stroke:none;stroke-width:59.48799896;stroke-linecap:round;stroke-linejoin:round;stroke-miterlimit:4;stroke-dasharray:none;stroke-opacity:1;paint-order:stroke fill markers"
         transform="rotate(-90)" />
      <circle
         style="opacity:1;fill:#fff391;fill-opacity:1;stroke:none;stroke-width:59.48799896;stroke-linecap:round;stroke-linejoin:round;stroke-miterlimit:4;stroke-dasharray:none;stroke-opacity:1;paint-order:stroke fill markers"
         id="circle4630"
         cx="695.01648"
         cy="670.08734"
         r="41.164722" />
      <circle
         r="41.164722"
         cy="630.37933"
         cx="655.30853"
         id="circle4632"
         style="opacity:1;fill:#fff391;fill-opacity:1;stroke:none;stroke-width:59.48799896;stroke-linecap:round;stroke-linejoin:round;stroke-miterlimit:4;stroke-dasharray:none;stroke-opacity:1;paint-order:stroke fill markers" />
      <circle
         style="opacity:1;fill:#fff391;fill-opacity:1;stroke:none;stroke-width:59.48799896;stroke-linecap:round;stroke-linejoin:round;stroke-miterlimit:4;stroke-dasharray:none;stroke-opacity:1;paint-order:stroke fill markers"
         id="circle4634"
         cx="629.92145"
         cy="580.90704"
         r="41.164722" />
      <circle
         r="41.164722"
         cy="525.57617"
         cx="620.80811"
         id="circle4636"
         style="opacity:1;fill:#fff391;fill-opacity:1;stroke:none;stroke-width:59.48799896;stroke-linecap:round;stroke-linejoin:round;stroke-miterlimit:4;stroke-dasharray:none;stroke-opacity:1;paint-order:stroke fill markers" />
      <circle
         style="opacity:1;fill:#fff391;fill-opacity:1;stroke:none;stroke-width:59.48799896;stroke-linecap:round;stroke-linejoin:round;stroke-miterlimit:4;stroke-dasharray:none;stroke-opacity:1;paint-order:stroke fill markers"
         id="circle4638"
         cx="744.48883"
         cy="695.47443"
         r="41.164722" />
    </g>
    <circle
       style="opacity:1;fill:url(#radialGradient5612);fill-opacity:1;stroke:none;stroke-width:4.56835461;stroke-linecap:round;stroke-linejoin:round;stroke-miterlimit:4;stroke-dasharray:none;stroke-opacity:1;paint-order:stroke fill markers"
       id="path4684"
       cx="19.037992"
       cy="277.94254"
       r="13.888964" />
    <g
       id="g4727"
       style="fill:#fff391;fill-opacity:0.88607597;stroke:#fff391;stroke-opacity:0.94514769"
       transform="matrix(0.07679455,0,0,0.07679455,-42.396786,237.61359)">
      <g
         id="g4701"
         style="fill:#fff391;fill-opacity:0.88607597;stroke:#fff391;stroke-opacity:0.94514769">
        <path
           style="fill:#fff391;fill-opacity:0.88607597;fill-rule:evenodd;stroke:#fff391;stroke-width:28;stroke-linecap:butt;stroke-linejoin:miter;stroke-miterlimit:4;stroke-dasharray:none;stroke-opacity:0.94514769"
           d="M 638.88526,408.47202 H 956.94701"
           id="path4686"
           inkscape:connector-curvature="0" />
        <path
           inkscape:connector-curvature="0"
           id="path4688"
           d="M 619.09275,465.39261 H 983.64401"
           style="fill:#fff391;fill-opacity:0.88607597;fill-rule:evenodd;stroke:#fff391;stroke-width:28.00000191;stroke-linecap:butt;stroke-linejoin:miter;stroke-miterlimit:4;stroke-dasharray:none;stroke-opacity:0.94514769" />
        <path
           style="fill:#fff391;fill-opacity:0.88607597;fill-rule:evenodd;stroke:#fff391;stroke-width:28.00000191;stroke-linecap:butt;stroke-linejoin:miter;stroke-miterlimit:4;stroke-dasharray:none;stroke-opacity:0.94514769"
           d="M 614.02956,524.01175 H 986.40579"
           id="path4690"
           inkscape:connector-curvature="0" />
        <path
           inkscape:connector-curvature="0"
           id="path4692"
           d="M 617.2516,583.85291 H 981.34258"
           style="fill:#fff391;fill-opacity:0.88607597;fill-rule:evenodd;stroke:#fff391;stroke-width:28.00000191;stroke-linecap:butt;stroke-linejoin:miter;stroke-miterlimit:4;stroke-dasharray:none;stroke-opacity:0.94514769" />
        <path
           inkscape:connector-curvature="0"
           id="path4694"
           d="M 638.88526,641.85289 H 956.94701"
           style="fill:#fff391;fill-opacity:0.88607597;fill-rule:evenodd;stroke:#fff391;stroke-width:28;stroke-linecap:butt;stroke-linejoin:miter;stroke-miterlimit:4;stroke-dasharray:none;stroke-opacity:0.94514769" />
      </g>
      <g
         transform="rotate(90,799.98753,524.9323)"
         id="g4713"
         style="fill:#fff391;fill-opacity:0.88607597;stroke:#fff391;stroke-opacity:0.94514769">
        <path
           inkscape:connector-curvature="0"
           id="path4703"
           d="M 638.88526,408.47202 H 956.94701"
           style="fill:#fff391;fill-opacity:0.88607597;fill-rule:evenodd;stroke:#fff391;stroke-width:28;stroke-linecap:butt;stroke-linejoin:miter;stroke-miterlimit:4;stroke-dasharray:none;stroke-opacity:0.94514769" />
        <path
           style="fill:#fff391;fill-opacity:0.88607597;fill-rule:evenodd;stroke:#fff391;stroke-width:28.00000191;stroke-linecap:butt;stroke-linejoin:miter;stroke-miterlimit:4;stroke-dasharray:none;stroke-opacity:0.94514769"
           d="M 619.09137,466.46892 H 983.64279"
           id="path4705"
           inkscape:connector-curvature="0" />
        <path
           inkscape:connector-curvature="0"
           id="path4707"
           d="M 614.02956,524.01175 H 986.40579"
           style="fill:#fff391;fill-opacity:0.88607597;fill-rule:evenodd;stroke:#fff391;stroke-width:28.00000191;stroke-linecap:butt;stroke-linejoin:miter;stroke-miterlimit:4;stroke-dasharray:none;stroke-opacity:0.94514769" />
        <path
           style="fill:#fff391;fill-opacity:0.88607597;fill-rule:evenodd;stroke:#fff391;stroke-width:28.00000191;stroke-linecap:butt;stroke-linejoin:miter;stroke-miterlimit:4;stroke-dasharray:none;stroke-opacity:0.94514769"
           d="M 617.2516,583.85291 H 981.34258"
           id="path4709"
           inkscape:connector-curvature="0" />
        <path
           style="fill:#fff391;fill-opacity:0.88607597;fill-rule:evenodd;stroke:#fff391;stroke-width:28;stroke-linecap:butt;stroke-linejoin:miter;stroke-miterlimit:4;stroke-dasharray:none;stroke-opacity:0.94514769"
           d="M 638.88526,641.85289 H 956.94701"
           id="path4711"
           inkscape:connector-curvature="0" />
      </g>
    </g>
  </g>
</svg>
