<?xml version="1.0" encoding="UTF-8" standalone="no"?>
<svg
   xmlns:dc="http://purl.org/dc/elements/1.1/"
   xmlns:cc="http://creativecommons.org/ns#"
   xmlns:rdf="http://www.w3.org/1999/02/22-rdf-syntax-ns#"
   xmlns:svg="http://www.w3.org/2000/svg"
   xmlns="http://www.w3.org/2000/svg"
   xmlns:xlink="http://www.w3.org/1999/xlink"
   xmlns:sodipodi="http://sodipodi.sourceforge.net/DTD/sodipodi-0.dtd"
   xmlns:inkscape="http://www.inkscape.org/namespaces/inkscape"
   viewBox="-147 -70 294 345"
   id="svg2"
   version="1.1"
   inkscape:version="0.91 r13725"
   sodipodi:docname="robot.svg">
  <metadata
     id="metadata33">
    <rdf:RDF>
      <cc:Work
         rdf:about="">
        <dc:format>image/svg+xml</dc:format>
        <dc:type
           rdf:resource="http://purl.org/dc/dcmitype/StillImage" />
        <dc:title />
      </cc:Work>
    </rdf:RDF>
  </metadata>
  <defs
     id="defs31">
    <clipPath
       clipPathUnits="userSpaceOnUse"
       id="clipPath4200">
      <ellipse
         id="ellipse4202"
         style="fill:#c63939;fill-opacity:1;stroke:none"
         cx="-1.1368684e-13"
         cy="41"
         rx="91"
         ry="74" />
    </clipPath>
  </defs>
  <sodipodi:namedview
     pagecolor="#c0c0c0"
     bordercolor="#666666"
     borderopacity="1"
     objecttolerance="10"
     gridtolerance="10"
     guidetolerance="10"
     inkscape:pageopacity="1"
     inkscape:pageshadow="2"
     inkscape:window-width="1920"
     inkscape:window-height="1010"
     id="namedview29"
     showgrid="false"
     showguides="false"
     inkscape:zoom="1.9348081"
     inkscape:cx="120.21721"
     inkscape:cy="204.77588"
     inkscape:window-x="0"
     inkscape:window-y="34"
     inkscape:window-maximized="1"
     inkscape:current-layer="svg2" />
  <g
     id="g4"
     fill="#a4c639">
    <path
       style="opacity:1;fill:#ffffff;fill-opacity:1;stroke:#ffffff;stroke-width:14.39999962;stroke-linecap:butt;stroke-linejoin:round;stroke-miterlimit:4;stroke-dasharray:none;stroke-dashoffset:0;stroke-opacity:1"
       id="path4163"
       sodipodi:type="arc"
       sodipodi:cx="3.2424928e-06"
       sodipodi:cy="41"
       sodipodi:rx="98.199997"
       sodipodi:ry="103.6"
       sodipodi:start="3.1415927"
       sodipodi:end="0"
       d="M -98.199994,40.999995 A 98.199997,103.6 0 0 1 5.5212339e-6,-62.599998 98.199997,103.6 0 0 1 98.2,41 L 3.2424928e-6,41 Z" />
    <use
       xlink:href="#b"
       id="use6"
       stroke-width="14.4"
       stroke="#FFF"
       style="stroke-width:14.4;stroke-miterlimit:4;stroke-dasharray:none" />
    <use
       xlink:href="#a"
       transform="scale(-1,1)"
       id="use8"
       style="fill:#a4c639;fill-opacity:1" />
    <g
       id="a"
       style="fill:#ff762c;fill-opacity:1"
       stroke-width="7.2"
       stroke="#FFF">
      <rect
         id="c"
         rx="24"
         height="133"
         width="48"
         y="41"
         x="-143"
         style="stroke-width:7.2;stroke-miterlimit:4;stroke-dasharray:none;fill:#ff762c;fill-opacity:1" />
      <use
         y="97"
         x="85"
         xlink:href="#c"
         id="use14"
         style="fill:#ff762c;fill-opacity:1" />
    </g>
    <g
       id="b"
       style="fill:#ff762c;fill-opacity:1">
      <rect
         rx="22"
         height="182"
         width="182"
         y="20"
         x="-91"
         id="rect19"
         style="fill:#ff762c;fill-opacity:1" />
      <path
         id="ellipse17"
         style="fill:#a4c639;fill-opacity:1"
         sodipodi:type="arc"
         sodipodi:cx="-5.6843419e-14"
         sodipodi:cy="41"
         sodipodi:rx="91"
         sodipodi:ry="74"
         sodipodi:start="3.1415927"
         sodipodi:end="0"
         d="M -91,40.999997 A 91,74 0 0 1 2.1116644e-6,-33 91,74 0 0 1 91,41 L 0,41 Z" />
      <path
         style="fill:none;fill-opacity:1;stroke:#c0c0c0;stroke-width:7.19999933;stroke-miterlimit:4;stroke-dasharray:none;stroke-opacity:1"
         d="M -86.557286,28.67015 C -86.557284,-4.9761368 -47.12936,-36.238877 1.6410085e-6,-36.238876 47.129363,-36.238875 86.523023,-4.8825415 86.523023,28.634533 c 0,0 -30.170756,15.071787 -86.523023,15.083019 -56.352267,0.01123 -86.557286,-15.047402 -86.557286,-15.047402 z"
         id="path4239"
         inkscape:connector-curvature="0"
         sodipodi:nodetypes="csczc" />
    </g>
  </g>
  <g
     id="g21"
     stroke-width="7.2"
     stroke="#FFF"
     fill="#FFF">
    <circle
       cx="-42"
       r="4"
       id="circle25" />
    <circle
       cx="42"
       r="4"
       id="circle27" />
    <g
       id="g4246">
      <path
         inkscape:connector-curvature="0"
         id="path4233"
         d="M 0,202 0,60.764921"
         style="fill:none;fill-rule:evenodd;stroke:#282828;stroke-width:7.40000105;stroke-linecap:butt;stroke-linejoin:miter;stroke-miterlimit:4;stroke-dasharray:none;stroke-opacity:1" />
      <path
         style="fill:none;fill-rule:evenodd;stroke:#c0c0c0;stroke-width:4;stroke-linecap:butt;stroke-linejoin:miter;stroke-miterlimit:4;stroke-dasharray:2, 2;stroke-dashoffset:0;stroke-opacity:1"
         d="M 0,202 0,61.676"
         id="path4235"
         inkscape:connector-curvature="0" />
    </g>
    <path
       clip-path="none"
       sodipodi:nodetypes="czc"
       inkscape:connector-curvature="0"
       id="path4210"
       d="m -94.999999,36.509744 c 0,0 34.731785,18 94.99999823306234,18 C 60.268212,54.509744 94.999999,36.509744 94.999999,36.509744"
       style="fill:none;fill-rule:evenodd;stroke:#ffffff;stroke-width:14.39999962;stroke-linecap:butt;stroke-linejoin:miter;stroke-miterlimit:4;stroke-dasharray:none;stroke-opacity:1" />
  </g>
</svg>
