<?xml version="1.0" encoding="UTF-8" standalone="no"?>
<svg
   xmlns:dc="http://purl.org/dc/elements/1.1/"
   xmlns:cc="http://creativecommons.org/ns#"
   xmlns:rdf="http://www.w3.org/1999/02/22-rdf-syntax-ns#"
   xmlns:svg="http://www.w3.org/2000/svg"
   xmlns="http://www.w3.org/2000/svg"
   xmlns:sodipodi="http://sodipodi.sourceforge.net/DTD/sodipodi-0.dtd"
   xmlns:inkscape="http://www.inkscape.org/namespaces/inkscape"
   version="1.1"
   id="svg2"
   viewBox="0 0 1150 155"
   height="155"
   width="1150"
   sodipodi:docname="vostok.svg"
   inkscape:version="0.92.1 r">
  <sodipodi:namedview
     pagecolor="#c0c0c0"
     bordercolor="#666666"
     borderopacity="1"
     objecttolerance="10"
     gridtolerance="10"
     guidetolerance="10"
     inkscape:pageopacity="0"
     inkscape:pageshadow="2"
     inkscape:window-width="1920"
     inkscape:window-height="1009"
     id="namedview13"
     showgrid="false"
     inkscape:zoom="0.52608696"
     inkscape:cx="578.80165"
     inkscape:cy="77.5"
     inkscape:window-x="0"
     inkscape:window-y="34"
     inkscape:window-maximized="1"
     inkscape:current-layer="svg2" />
  <defs
     id="defs4" />
  <metadata
     id="metadata7">
    <rdf:RDF>
      <cc:Work
         rdf:about="">
        <dc:format>image/svg+xml</dc:format>
        <dc:type
           rdf:resource="http://purl.org/dc/dcmitype/StillImage" />
        <dc:title></dc:title>
      </cc:Work>
    </rdf:RDF>
  </metadata>
  <g
     transform="translate(0,-897.36216)"
     id="layer1">
    <g
       id="text4140"
       style="font-style:normal;font-variant:normal;font-weight:normal;font-stretch:normal;font-size:42.86606598px;line-height:125%;font-family:'Yanone Kaffeesatz';-inkscape-font-specification:'Yanone Kaffeesatz';letter-spacing:0px;word-spacing:0px;fill:#ffffff;fill-opacity:1;stroke:none;stroke-width:1px;stroke-linecap:butt;stroke-linejoin:miter;stroke-opacity:1"
       transform="scale(1.2247448,0.81649663)">
      <path
         id="path4136"
         style="font-style:normal;font-variant:normal;font-weight:900;font-stretch:normal;font-size:244.94895935px;font-family:Exo;-inkscape-font-specification:'Exo Heavy';fill:#ffffff;fill-opacity:1"
         d="m 0,1107.6129 49.969588,0 29.638824,121.0048 32.088318,-121.0048 49.96958,0 -53.64382,179.3026 -57.318055,0 L 0,1107.6129 Z" />
      <path
         id="path4138"
         style="font-style:normal;font-variant:normal;font-weight:900;font-stretch:normal;font-size:244.94895935px;font-family:Exo;-inkscape-font-specification:'Exo Heavy';fill:#ffffff;fill-opacity:1"
         d="m 174.19699,1258.0116 q -4.89898,-9.798 -7.34847,-24.4949 -2.20454,-14.9419 -2.20454,-33.803 0,-18.8611 1.95959,-32.5782 2.20454,-13.9621 5.38888,-23.5151 3.42928,-9.798 8.81816,-16.6565 5.63382,-6.8586 11.26765,-10.7778 5.87878,-3.9192 13.96209,-6.1237 12.73735,-3.6743 27.67923,-3.6743 15.18684,0 22.53531,0.7349 7.59342,0.7348 15.67673,2.9394 8.32827,2.2045 13.96209,6.1237 5.87878,3.9192 11.26765,10.7778 5.38888,6.8585 8.81817,16.4115 7.10352,21.3106 7.10352,49.9696 0,28.4141 -3.67424,44.8257 -3.67423,16.4116 -9.55301,25.9646 -5.87877,9.553 -15.92168,14.9419 -10.04291,5.3888 -20.33076,7.1035 -10.04291,1.7146 -23.76005,1.7146 -13.47219,0 -22.04541,-0.9798 -8.32826,-0.9798 -17.63632,-3.9192 -9.30806,-3.1843 -15.18684,-9.308 -5.87877,-6.1237 -10.77775,-15.6767 z m 47.76504,-105.5731 q -5.14392,3.1844 -7.59341,13.4722 -2.20454,10.2879 -2.20454,36.0075 0,25.7197 4.65403,34.5378 4.65403,8.8182 21.31056,8.8182 16.65652,0 22.0454,-9.3081 5.38888,-9.308 5.38888,-31.5984 0,-22.2903 -0.9798,-31.3534 -0.97979,-9.0632 -4.16413,-14.697 -2.93939,-5.8788 -7.83837,-7.5934 -4.89898,-1.7146 -15.18683,-1.7146 -10.04291,0 -15.43179,3.4292 z" />
      <path
         id="path4140"
         style="font-style:normal;font-variant:normal;font-weight:900;font-stretch:normal;font-size:244.94895935px;font-family:Exo;-inkscape-font-specification:'Exo Heavy';fill:#ffffff;fill-opacity:1"
         d="m 328.26223,1169.585 0,-14.9419 q 0,-23.0252 13.22725,-35.0277 13.47219,-12.0025 35.27265,-13.4722 9.55301,-0.7349 18.61612,-0.7349 33.55801,0 57.31805,8.8182 l 0,36.9873 q -22.29035,-2.4495 -58.78775,-2.4495 -10.77775,0 -14.45198,1.7147 -3.67424,1.7146 -3.67424,9.0631 l 0,2.6944 q 0,6.3687 2.69444,9.0631 2.69444,2.6945 12.0025,2.6945 l 23.0252,0 q 29.14893,0 40.41658,25.2297 5.38888,12.2474 5.38888,26.6994 l 0,8.0834 q 0,54.8685 -49.72464,54.8685 -35.76255,0 -46.78525,-1.2247 -11.02271,-0.9798 -28.90398,-7.1035 l 0,-36.9873 q 26.94438,2.6944 63.44178,2.6944 7.83837,0 11.0227,-2.2045 3.42929,-2.4495 3.42929,-7.8384 l 0,-3.9192 q 0,-5.6338 -2.69444,-8.0833 -2.69444,-2.6944 -10.28786,-2.6944 l -22.0454,0 q -13.22725,0 -23.02521,-4.4091 -9.553,-4.4091 -14.20703,-10.2879 -4.65404,-5.8788 -7.59342,-13.9621 -3.67424,-11.2676 -3.67424,-23.2701 z" />
      <path
         id="path4142"
         style="font-style:normal;font-variant:normal;font-weight:900;font-stretch:normal;font-size:244.94895935px;font-family:Exo;-inkscape-font-specification:'Exo Heavy';fill:#ffffff;fill-opacity:1"
         d="m 462.83873,1150.234 0,-42.6211 139.13101,0 0,42.6211 -46.5403,0 0,136.6815 -47.5201,0 0,-136.6815 -45.07061,0 z" />
      <path
         id="path4144"
         style="font-style:normal;font-variant:normal;font-weight:900;font-stretch:normal;font-size:244.94895935px;font-family:Exo;-inkscape-font-specification:'Exo Heavy';fill:#ffffff;fill-opacity:1"
         d="m 620.55905,1258.0116 q -4.89898,-9.798 -7.34847,-24.4949 -2.20454,-14.9419 -2.20454,-33.803 0,-18.8611 1.95959,-32.5782 2.20454,-13.9621 5.38888,-23.5151 3.42928,-9.798 8.81816,-16.6565 5.63383,-6.8586 11.26765,-10.7778 5.87878,-3.9192 13.96209,-6.1237 12.73735,-3.6743 27.67923,-3.6743 15.18684,0 22.53531,0.7349 7.59342,0.7348 15.67673,2.9394 8.32827,2.2045 13.96209,6.1237 5.87878,3.9192 11.26765,10.7778 5.38888,6.8585 8.81817,16.4115 7.10352,21.3106 7.10352,49.9696 0,28.4141 -3.67424,44.8257 -3.67423,16.4116 -9.55301,25.9646 -5.87877,9.553 -15.92168,14.9419 -10.04291,5.3888 -20.33076,7.1035 -10.04291,1.7146 -23.76005,1.7146 -13.47219,0 -22.04541,-0.9798 -8.32826,-0.9798 -17.63632,-3.9192 -9.30806,-3.1843 -15.18684,-9.308 -5.87877,-6.1237 -10.77775,-15.6767 z m 47.76504,-105.5731 q -5.14392,3.1844 -7.59341,13.4722 -2.20454,10.2879 -2.20454,36.0075 0,25.7197 4.65403,34.5378 4.65403,8.8182 21.31056,8.8182 16.65652,0 22.0454,-9.3081 5.38888,-9.308 5.38888,-31.5984 0,-22.2903 -0.9798,-31.3534 -0.97979,-9.0632 -4.16413,-14.697 -2.93939,-5.8788 -7.83837,-7.5934 -4.89897,-1.7146 -15.18683,-1.7146 -10.04291,0 -15.43179,3.4292 z" />
      <path
         id="path4146"
         style="font-style:normal;font-variant:normal;font-weight:900;font-stretch:normal;font-size:244.94895935px;font-family:Exo;-inkscape-font-specification:'Exo Heavy';fill:#ffffff;fill-opacity:1"
         d="m 776.58392,1286.9155 0,-179.3026 45.0706,0 0,70.5453 9.79796,0 36.4974,-70.5453 54.62362,0 -49.23475,90.1412 49.23475,89.1614 -54.62362,0 -36.4974,-68.5857 -9.55301,0 0,68.5857 -45.31555,0 z" />
    </g>
  </g>
</svg>
